{
	"type":"object",
	"$schema": "http://json-schema.org/draft-03/schema",
	"id": "peers",
	"required":true,
	"items":
	{
		"type":"array",
		"id": "peers",
		"required":true,
		"items":
		{
			"type":"object",
			"id": "peers/0",
			"required":false,
			"properties":
			{
				"address":
				{
					"type":"string",
					"id": "peers/0/address",
					"required":false
				},
				"id":
				{
					"type":"string",
					"id": "peers/0/id",
					"required":false
				},
				"port":
				{
					"type":"number",
					"id": "peers/0/port",
					"required":false
				}
			}
		}
	}
}
